<?xml version="1.0"?>
<robot name="MiniAPTERROS-1">

  <material name="blue">     <color rgba="0. 0. .8 1"/> </material>
  <material name="red">      <color rgba=".8 0. 0. 1"/> </material>
  <material name="lightred"> <color rgba=".8 .4 .4 1"/> </material>
  <material name="green">    <color rgba="0. .8 0. 1"/> </material>
  <material name="white">    <color rgba="1. 1. 1. 1"/> </material>
  <material name="grey">     <color rgba=".6 .6 .6 1"/> </material>
  <material name="orange">   <color rgba=".9 .2 .2 1"/> </material>
  <material name="black">    <color rgba=".1 .1 .1 1"/> </material>

  <!-- ************************************************** -->
  <!-- **** The battery Plate is the base_link       **** -->
  <!-- ************************************************** -->
  <link name="base_link">
    <visual>
      <origin xyz="0. 0. 0." rpy="0. 0. 0." />
      <geometry>
        <cylinder length="20e-3" radius="90e-3" />
      </geometry>
      <material name="blue" />
    </visual>
    <inertial>
      <origin xyz="0. 0. 0." rpy="0. 0. 0." />
      <mass value="197e-3" />
      <inertia ixx="4.05e-04" ixy="0" ixz="0" iyy="4.05e-04" iyz="0" izz="7.98e-04" />
    </inertial>
    <collision>
      <origin xyz="0. 0. 0." rpy="0. 0. 0." />
      <geometry>
        <cylinder length="20e-3" radius="90e-3" />
      </geometry>
    </collision>
  </link>

  <!-- ************************************************** -->
  <!-- **** tube_Est                                 **** -->
  <!-- ************************************************** -->
  <link name="tube_Est">
    <visual>
      <origin xyz="0. 0. 0.2" rpy="0. 0. 0." />
      <geometry>
        <cylinder length="440e-3" radius="8e-3" />
      </geometry>
      <material name="white" />
    </visual>
    <inertial>
      <origin xyz="0. 0. 0.2" rpy="0. 0. 0." />
      <mass value="76e-3" />
      <inertia ixx="1.23e-03" ixy="0" ixz="0" iyy="1.23e-03" iyz="0" izz="3.80e-06" />
    </inertial>
  </link>
  <joint name="base_link_to_tube_Est" type="fixed">
    <parent link="base_link" />
    <child link="tube_Est" />
    <origin xyz="80e-3 0. 0." rpy="0. 0. 0." />
  </joint>
  <!-- ************************************************** -->
  <!-- **** tube_West                                **** -->
  <!-- ************************************************** -->
  <link name="tube_West">
    <visual>
      <origin xyz="0. 0. 0.2" rpy="0. 0. 0." />
      <geometry>
        <cylinder length="440e-3" radius="8e-3" />
      </geometry>
      <material name="white" />
    </visual>
    <inertial>
      <origin xyz="0. 0. 0.2" rpy="0. 0. 0." />
      <mass value="76e-3" />
      <inertia ixx="1.23e-03" ixy="0" ixz="0" iyy="1.23e-03" iyz="0" izz="3.80e-06" />
    </inertial>
  </link>
  <joint name="base_link_to_tube_West" type="fixed">
    <parent link="base_link" />
    <child link="tube_West" />
    <origin xyz="-80e-3 0. 0." rpy="0. 0. 3.1416" />
  </joint>
  <!-- ************************************************** -->
  <!-- **** tube_North                               **** -->
  <!-- ************************************************** -->
  <link name="tube_North">
    <visual>
      <origin xyz="0. 0. 0.2" rpy="0. 0. 0." />
      <geometry>
        <cylinder length="440e-3" radius="8e-3" />
      </geometry>
      <material name="black" />
    </visual>
    <inertial>
      <origin xyz="0. 0. 0.2" rpy="0. 0. 0." />
      <mass value="76e-3" />
      <inertia ixx="1.23e-03" ixy="0" ixz="0" iyy="1.23e-03" iyz="0" izz="3.80e-06" />
    </inertial>
  </link>
  <joint name="base_link_to_tube_North" type="fixed">
    <parent link="base_link" />
    <child link="tube_North" />
    <origin xyz="0. 80e-3 0." rpy="0. 0. 1.5708" />
  </joint>
  <!-- ************************************************** -->
  <!-- **** tube_South                               **** -->
  <!-- ************************************************** -->
  <link name="tube_South">
    <visual>
      <origin xyz="0. 0. 0.2" rpy="0. 0. 0." />
      <geometry>
        <cylinder length="440e-3" radius="8e-3" />
      </geometry>
      <material name="white" />
    </visual>
    <inertial>
      <origin xyz="0. 0. 0.2" rpy="0. 0. 0." />
      <mass value="76e-3" />
      <inertia ixx="1.23e-03" ixy="0" ixz="0" iyy="1.23e-03" iyz="0" izz="3.80e-06" />
    </inertial>
  </link>
  <joint name="base_link_to_tube_South" type="fixed">
    <parent link="base_link" />
    <child link="tube_South" />
    <origin xyz="0. -80e-3 0." rpy="0. 0. -1.5708" />
  </joint>
  <!-- ************************************************** -->
  <!-- **** foot_Est                                 **** -->
  <!-- ************************************************** -->
  <link name="foot_Est">
    <visual>
      <origin xyz="0. 0. 0." rpy="0. 0. 0." />
      <geometry>
        <cylinder length="600e-3" radius="8e-3" />
      </geometry>
      <material name="white" />
    </visual>
    <inertial>
      <origin xyz="0. 0. 0." rpy="0. 0. 0." />
      <mass value="96e-3" />
      <inertia ixx="2.88e-03" ixy="0" ixz="0" iyy="2.88e-03" iyz="0" izz="4.80e-06" />
    </inertial>
    <collision>
      <origin xyz="0. 0. 0." rpy="0. 0. 0." />
      <geometry>
        <cylinder length="600e-3" radius="8e-3" />
      </geometry>
    </collision>
  </link>
  <joint name="base_link_to_foot_Est" type="fixed">
    <parent link="base_link" />
    <child link="foot_Est" />
    <origin xyz="0.25 0. -0.25" rpy="0. -0.6 0." />
  </joint>
  <!-- ************************************************** -->
  <!-- **** foot_West                                **** -->
  <!-- ************************************************** -->
  <link name="foot_West">
    <visual>
      <origin xyz="0. 0. 0." rpy="0. 0. 0." />
      <geometry>
        <cylinder length="600e-3" radius="8e-3" />
      </geometry>
      <material name="white" />
    </visual>
    <inertial>
      <origin xyz="0. 0. 0." rpy="0. 0. 0." />
      <mass value="96e-3" />
      <inertia ixx="2.88e-03" ixy="0" ixz="0" iyy="2.88e-03" iyz="0" izz="4.80e-06" />
    </inertial>
    <collision>
      <origin xyz="0. 0. 0." rpy="0. 0. 0." />
      <geometry>
        <cylinder length="600e-3" radius="8e-3" />
      </geometry>
    </collision>
  </link>
  <joint name="base_link_to_foot_West" type="fixed">
    <parent link="base_link" />
    <child link="foot_West" />
    <origin xyz="-0.25 0. -0.25" rpy="0 -0.6 3.1416" />
  </joint>
  <!-- ************************************************** -->
  <!-- **** foot_North                               **** -->
  <!-- ************************************************** -->
  <link name="foot_North">
    <visual>
      <origin xyz="0. 0. 0." rpy="0. 0. 0." />
      <geometry>
        <cylinder length="600e-3" radius="8e-3" />
      </geometry>
      <material name="black" />
    </visual>
    <inertial>
      <origin xyz="0. 0. 0." rpy="0. 0. 0." />
      <mass value="96e-3" />
      <inertia ixx="2.88e-03" ixy="0" ixz="0" iyy="2.88e-03" iyz="0" izz="4.80e-06" />
    </inertial>
    <collision>
      <origin xyz="0. 0. 0." rpy="0. 0. 0." />
      <geometry>
        <cylinder length="600e-3" radius="8e-3" />
      </geometry>
    </collision>
  </link>
  <joint name="base_link_to_foot_North" type="fixed">
    <parent link="base_link" />
    <child link="foot_North" />
    <origin xyz="0. 0.25 -0.25" rpy="0. -0.6  1.5708" />
  </joint>
  <!-- ************************************************** -->
  <!-- **** foot_South                               **** -->
  <!-- ************************************************** -->
  <link name="foot_South">
    <visual>
      <origin xyz="0. 0. 0." rpy="0. 0. 0." />
      <geometry>
        <cylinder length="600e-3" radius="8e-3" />
      </geometry>
      <material name="white" />
    </visual>
    <inertial>
      <origin xyz="0. 0. 0." rpy="0. 0. 0." />
      <mass value="96e-3" />
      <inertia ixx="2.88e-03" ixy="0" ixz="0" iyy="2.88e-03" iyz="0" izz="4.80e-06" />
    </inertial>
    <collision>
      <origin xyz="0. 0. 0." rpy="0. 0. 0." />
      <geometry>
        <cylinder length="600e-3" radius="8e-3" />
      </geometry>
    </collision>
  </link>
  <joint name="base_link_to_foot_South" type="fixed">
    <parent link="base_link" />
    <child link="foot_South" />
    <origin xyz="0. -0.25 -0.25" rpy="0. -0.6 -1.5708" />
  </joint>
  <!-- ************************************************** -->
  <!-- **** Battery1                                 **** -->
  <!-- ************************************************** -->
  <link name="Battery1">
    <visual>
      <origin xyz="0. 0. 0." rpy="0. 0. 0." />
      <geometry>
        <box size="45e-3 75e-3 150e-3" />
      </geometry>
      <material name="grey" />
    </visual>
    <inertial>
      <origin xyz="0. 0. 0." rpy="0. 0. 0." />
      <mass value="1.1" />
      <inertia ixx="2.58e-03" ixy="0" ixz="0" iyy="2.25e-03" iyz="0" izz="7.01e-04" />
    </inertial>
  </link>
  <joint name="base_link_to_Battery1" type="fixed">
    <parent link="base_link" />
    <child link="Battery1" />
    <origin xyz="35e-3 0. 75e-3" rpy="0. 0. 0." />
  </joint>
  <!-- ************************************************** -->
  <!-- **** Battery2                                 **** -->
  <!-- ************************************************** -->
  <link name="Battery2">
    <visual>
      <origin xyz="0. 0. 0." rpy="0. 0. 0." />
      <geometry>
        <box size="45e-3 75e-3 150e-3" />
      </geometry>
      <material name="grey" />
    </visual>
    <inertial>
      <origin xyz="0. 0. 0." rpy="0. 0. 0." />
      <mass value="1.1" />
      <inertia ixx="2.58e-03" ixy="0" ixz="0" iyy="2.25e-03" iyz="0" izz="7.01e-04" />
    </inertial>
  </link>
  <joint name="base_link_to_Battery2" type="fixed">
    <parent link="base_link" />
    <child link="Battery2" />
    <origin xyz="-35e-3 0. 75e-3" rpy="0. 0. 0." />
  </joint>
  <!-- ************************************************** -->
  <!-- **** anti_roll_plate                          **** -->
  <!-- ************************************************** -->
  <link name="anti_roll_plate">
    <visual>
      <origin xyz="0. 0. 0." rpy="0. 0. 0." />
      <geometry>
        <cylinder length="6e-3" radius="90e-3" />
      </geometry>
      <material name="blue" />
    </visual>
    <inertial>
      <origin xyz="0. 0. 0." rpy="0. 0. 0." />
      <mass value="0.082" />
      <inertia ixx="1.66e-04" ixy="0" ixz="0" iyy="1.66e-04" iyz="0" izz="3.32e-04" />
    </inertial>
    <collision>
      <origin xyz="0. 0. 0." rpy="0. 0. 0." />
      <geometry>
        <cylinder length="6e-3" radius="90e-3" />
      </geometry>
    </collision>
  </link>
  <joint name="base_link_to_anti_roll_plate" type="fixed">
    <parent link="base_link" />
    <child link="anti_roll_plate" />
    <origin xyz="0. 0. 0.2" rpy="0. 0. 0." />
  </joint>
  <!-- ************************************************** -->
  <!-- **** anti_roll_wall                           **** -->
  <!-- ************************************************** -->
  <link name="anti_roll_wall">
    <visual>
      <origin xyz="0. 0. 0." rpy="0. 0. 0." />
      <geometry>
        <box size="130e-3 8e-3 36e-3" />
      </geometry>
      <material name="orange" />
    </visual>
    <inertial>
      <origin xyz="0. 0. 0." rpy="0. 0. 0." />
      <mass value="0.020" />
      <inertia ixx="2.27e-06" ixy="0" ixz="0" iyy="3.03e-05" iyz="0" izz="2.83e-05" />
    </inertial>
  </link>
  <joint name="anti_roll_plate_to_anti_roll_wall" type="fixed">
    <parent link="anti_roll_plate" />
    <child link="anti_roll_wall" />
    <origin xyz="0. 0. 0.025" rpy="0. 0. 0." />
  </joint>
  <!-- ************************************************** -->
  <!-- **** computer_plate                           **** -->
  <!-- ************************************************** -->
  <link name="computer_plate">
    <visual>
      <origin xyz="0. 0. 0." rpy="0. 0. 0." />
      <geometry>
        <cylinder length="6e-3" radius="90e-3" />
      </geometry>
      <material name="blue" />
    </visual>
    <inertial>
      <origin xyz="0. 0. 0." rpy="0. 0. 0." />
      <mass value="0.082" />
      <inertia ixx="1.66e-04" ixy="0" ixz="0" iyy="1.66e-04" iyz="0" izz="3.32e-04" />
    </inertial>
    <collision>
      <origin xyz="0. 0. 0." rpy="0. 0. 0." />
      <geometry>
        <cylinder length="6e-3" radius="90e-3" />
      </geometry>
    </collision>
  </link>
  <joint name="base_link_to_computer_plate" type="fixed">
    <parent link="base_link" />
    <child link="computer_plate" />
    <origin xyz="0. 0. 0.25" rpy="0. 0. 0." />
  </joint>
  <!-- ************************************************** -->
  <!-- **** computer_wall                            **** -->
  <!-- ************************************************** -->
  <link name="computer_wall">
    <visual>
      <origin xyz="0. 0. 0." rpy="0. 0. 0." />
      <geometry>
        <box size="76.5e-3 8e-3 150e-3" />
      </geometry>
      <material name="orange" />
    </visual>
    <inertial>
      <origin xyz="0. 0. 0." rpy="0. 0. 0." />
      <mass value="0.185" />
      <inertia ixx="3.48e-04" ixy="0" ixz="0" iyy="4.37e-04" iyz="0" izz="9.12e-05" />
    </inertial>
  </link>
  <joint name="computer_plate_to_computer_wall" type="fixed">
    <parent link="computer_plate" />
    <child link="computer_wall" />
    <origin xyz="0. 0. 0.075" rpy="0. 0. 0." />
  </joint>
  <!-- ************************************************** -->
  <!-- **** IMU_plate                                **** -->
  <!-- ************************************************** -->
  <link name="IMU_plate">
    <visual>
      <origin xyz="0. 0. 0." rpy="0. 0. 0." />
      <geometry>
        <cylinder length="8e-3" radius="90e-3" />
      </geometry>
      <material name="blue" />
    </visual>
    <inertial>
      <origin xyz="0. 0. 0." rpy="0. 0. 0." />
      <mass value="0.087" />
      <inertia ixx="1.77e-04" ixy="0" ixz="0" iyy="1.77e-04" iyz="0" izz="3.52e-04" />
    </inertial>
    <collision>
      <origin xyz="0. 0. 0." rpy="0. 0. 0." />
      <geometry>
        <cylinder length="8e-3" radius="90e-3" />
      </geometry>
    </collision>
  </link>
  <joint name="base_link_to_IMU_plate" type="fixed">
    <parent link="base_link" />
    <child link="IMU_plate" />
    <origin xyz="0. 0. 0.4" rpy="0. 0. 0." />
  </joint>
  <!-- ************************************************** -->
  <!-- **** IMU_base                                 **** -->
  <!-- ************************************************** -->
  <link name="IMU_base">
    <visual>
      <origin xyz="0. 0. 0." rpy="0. 0. 0." />
      <geometry>
        <box size="57e-3 42e-3 8.6e-3" />
      </geometry>
      <material name="orange" />
    </visual>
    <inertial>
      <origin xyz="0. 0. 0." rpy="0. 0. 0." />
      <mass value="0.050" />
      <inertia ixx="7.66e-06" ixy="0" ixz="0" iyy="1.38e-05" iyz="0" izz="2.09e-05" />
    </inertial>
  </link>
  <joint name="IMU_plate_to_IMU_base" type="fixed">
    <parent link="IMU_plate" />
    <child link="IMU_base" />
    <origin xyz="-12.5e-3 -2.45e-3 8.3e-3" rpy="0. 0. 0." />
  </joint>
  <!-- ************************************************** -->
  <!-- **** IMU_case                                 **** -->
  <!-- ************************************************** -->
  <link name="IMU_case">
    <visual>
      <origin xyz="0. 0. 0." rpy="0. 0. 0." />
      <geometry>
        <box size="41.8e-3 36.4e-3 14.4e-3" />
      </geometry>
      <material name="orange" />
    </visual>
    <inertial>
      <origin xyz="0. 0. 0." rpy="0. 0. 0." />
      <mass value="0.100" />
      <inertia ixx="1.28e-05" ixy="0" ixz="0" iyy="1.63e-05" iyz="0" izz="2.56e-05" />
    </inertial>
  </link>
  <joint name="IMU_base_to_IMU_case" type="fixed">
    <parent link="IMU_base" />
    <child link="IMU_case" />
    <origin xyz="0 0 0.0117" rpy="0. 0. 0." />
  </joint>
  <!-- ************************************************** -->
  <!-- **** gymbal_x_up                              **** -->
  <!-- ************************************************** -->
  <link name="gymbal_x_up">
    <visual>
      <origin xyz="0. 0. 0." rpy="0. 0. 0." />
      <geometry>
        <cylinder length="20.e-3" radius="5e-3" />
      </geometry>
      <material name="black" />
    </visual>
    <inertial>
      <origin xyz="0. 0. 0." rpy="0. 0. 0." />
      <mass value="0.030" />
      <inertia ixx="1.19e-06" ixy="0" ixz="0" iyy="1.19e-06" iyz="0" izz="3.75e-07" />
    </inertial>
  </link>
  <joint name="base_link_to_gymbal_x_up" type="fixed">
    <parent link="base_link" />
    <child link="gymbal_x_up" />
    <origin xyz="0. 0. -18e-3" rpy="0. 0. 0." />
  </joint>
  <!-- ************************************************** -->
  <!-- **** gimbal_x                                 **** -->
  <!-- ************************************************** -->
  <link name="gimbal_x">
    <visual>
      <origin xyz="0. 0. 0." rpy="0. 0. 0." />
      <geometry>
        <cylinder length="10.e-3" radius="1e-3" />
      </geometry>
      <material name="white" />
    </visual>
    <inertial>
      <origin xyz="0. 0. 0." rpy="0. 0. 0." />
      <mass value="0.010" />
      <inertia ixx="8.58e-08" ixy="0" ixz="0" iyy="8.58e-08" iyz="0" izz="5.00e-09" />
    </inertial>
  </link>
  <joint name="gymbal_x_up_to_gimbal_x" type="revolute">
    <parent link="gymbal_x_up" />
    <child link="gimbal_x" />
    <axis xyz="0 0 1" />
    <origin xyz="0. 0. -10e-3" rpy="0. 1.5708 0." />
    <limit  effort="100" lower="-0.5" upper="0.5" velocity="100" />
  </joint>
  <!-- ************************************************** -->
  <!-- **** gimbal_y                                 **** -->
  <!-- ************************************************** -->
  <link name="gimbal_y">
    <visual>
      <origin xyz="0. 0. 0." rpy="0. 0. 0." />
      <geometry>
        <cylinder length="10.e-3" radius="1e-3" />
      </geometry>
      <material name="white" />
    </visual>
    <inertial>
      <origin xyz="0. 0. 0." rpy="0. 0. 0." />
      <mass value="0.010" />
      <inertia ixx="8.58e-08" ixy="0" ixz="0" iyy="8.58e-08" iyz="0" izz="5.00e-09" />
    </inertial>
  </link>
  <joint name="gimbal_x_to_gimbal_y" type="revolute">
    <parent link="gimbal_x" />
    <child link="gimbal_y" />
    <axis xyz="0 0 1" />
    <origin xyz="0. 0. 0." rpy="-1.5708 0 0" />
    <limit  effort="100" lower="-0.5" upper="0.5" velocity="100" />
  </joint>
  <!-- ************************************************** -->
  <!-- **** gymbal_y_down                            **** -->
  <!-- ************************************************** -->
  <link name="gymbal_y_down">
    <visual>
      <origin xyz="0. 0. 0." rpy="0. 0. 0." />
      <geometry>
        <cylinder length="20.e-3" radius="5e-3" />
      </geometry>
      <material name="black" />
    </visual>
    <inertial>
      <origin xyz="0. 0. 0." rpy="0. 0. 0." />
      <mass value="0.030" />
      <inertia ixx="1.19e-06" ixy="0" ixz="0" iyy="1.19e-06" iyz="0" izz="3.75e-07" />
    </inertial>
  </link>
  <joint name="gimbal_y_to_gymbal_y_down" type="fixed">
    <parent link="gimbal_y" />
    <child link="gymbal_y_down" />
    <origin xyz="10e-3 0 0" rpy="1.5708 0. -1.5708" />
  </joint>
  <!-- ************************************************** -->
  <!-- **** central_hub                              **** -->
  <!-- ************************************************** -->
  <link name="central_hub">
    <visual>
      <origin xyz="0. 0. 0." rpy="0. 0. 0." />
      <geometry>
        <box size="40e-3 40e-3 50e-3" />
      </geometry>
      <material name="green" />
    </visual>
    <inertial>
      <origin xyz="0. 0. 0." rpy="0. 0. 0." />
      <mass value="0.050" />
      <inertia ixx="1.71e-05" ixy="0" ixz="0" iyy="1.71e-05" iyz="0" izz="1.33e-05" />
    </inertial>
  </link>
  <joint name="gymbal_y_down_to_central_hub" type="fixed">
    <parent link="gymbal_y_down" />
    <child link="central_hub" />
    <origin xyz="0. 0. -35e-3" rpy="0. 0. 0.7854" />
  </joint>
  <!-- ************************************************** -->
  <!-- **** NE_prop_arm                              **** -->
  <!-- ************************************************** -->
  <link name="NE_prop_arm">
    <visual>
      <origin xyz="0. 0. 0." rpy="0. 0. 0." />
      <geometry>
        <box size="70.e-3 30e-3 40e-3" />
      </geometry>
      <material name="green" />
    </visual>
    <inertial>
      <origin xyz="0. 0. 0." rpy="0. 0. 0." />
      <mass value="0.112" />
      <inertia ixx="2.33e-05" ixy="0" ixz="0" iyy="6.07e-05" iyz="0" izz="5.41e-05" />
    </inertial>
  </link>
  <joint name="central_hub_to_NE_prop_arm" type="fixed">
    <parent link="central_hub" />
    <child link="NE_prop_arm" />
    <origin xyz="55e-3 0 -5e-3" rpy="0. 0. 0." />
  </joint>
  <!-- ************************************************** -->
  <!-- **** NE_propeller_up                          **** -->
  <!-- ************************************************** -->
  <link name="NE_propeller_up">
    <visual>
      <origin xyz="0. 0. 0." rpy="0. 0. 0." />
      <geometry>
        <cylinder length="74.e-3" radius="46e-3" />
      </geometry>
      <material name="lightred" />
    </visual>
    <inertial>
      <origin xyz="0. 0. 0." rpy="0. 0. 0." />
      <mass value="0.320" />
      <inertia ixx="3.15e-04" ixy="0" ixz="0" iyy="3.15e-04" iyz="0" izz="3.39e-04" />
    </inertial>
  </link>
  <joint name="NE_prop_arm_to_NE_propeller_up" type="fixed">
    <parent link="NE_prop_arm" />
    <child link="NE_propeller_up" />
    <origin xyz="81e-3 0. 0." rpy="0. 0. 0." />
  </joint>
  <!-- ************************************************** -->
  <!-- **** NE_propeller_down                        **** -->
  <!-- ************************************************** -->
  <link name="NE_propeller_down">
    <visual>
      <origin xyz="0. 0. 0." rpy="0. 0. 0." />
      <geometry>
        <cylinder length="74.e-3" radius="23e-3" />
      </geometry>
      <material name="lightred" />
    </visual>
    <inertial>
      <origin xyz="0. 0. 0." rpy="0. 0. 0." />
      <mass value="0.160" />
      <inertia ixx="9.42e-05" ixy="0" ixz="0" iyy="9.42e-05" iyz="0" izz="4.23e-05" />
    </inertial>
  </link>
  <joint name="NE_propeller_up_to_NE_propeller_down" type="fixed">
    <parent link="NE_propeller_up" />
    <child link="NE_propeller_down" />
    <origin xyz="0. 0. -74e-3" rpy="0. 0. 0." />
  </joint>
  <!-- ************************************************** -->
  <!-- **** SW_prop_arm                              **** -->
  <!-- ************************************************** -->
  <link name="SW_prop_arm">
    <visual>
      <origin xyz="0. 0. 0." rpy="0. 0. 0." />
      <geometry>
        <box size="70.e-3 30e-3 40e-3" />
      </geometry>
      <material name="green" />
    </visual>
    <inertial>
      <origin xyz="0. 0. 0." rpy="0. 0. 0." />
      <mass value="0.112" />
      <inertia ixx="2.33e-05" ixy="0" ixz="0" iyy="6.07e-05" iyz="0" izz="5.41e-05" />
    </inertial>
  </link>
  <joint name="central_hub_to_SW_prop_arm" type="fixed">
    <parent link="central_hub" />
    <child link="SW_prop_arm" />
    <origin xyz="-55e-3 0 -5e-3" rpy="0 0 3.1406" />
  </joint>
  <!-- ************************************************** -->
  <!-- **** SW_propeller_up                          **** -->
  <!-- ************************************************** -->
  <link name="SW_propeller_up">
    <visual>
      <origin xyz="0. 0. 0." rpy="0. 0. 0." />
      <geometry>
        <cylinder length="74.e-3" radius="46e-3" />
      </geometry>
      <material name="lightred" />
    </visual>
    <inertial>
      <origin xyz="0. 0. 0." rpy="0. 0. 0." />
      <mass value="0.320" />
      <inertia ixx="3.15e-04" ixy="0" ixz="0" iyy="3.15e-04" iyz="0" izz="3.39e-04" />
    </inertial>
  </link>
  <joint name="SW_prop_arm_to_SW_propeller_up" type="fixed">
    <parent link="SW_prop_arm" />
    <child link="SW_propeller_up" />
    <origin xyz="81e-3 0. 0." rpy="0. 0. 0." />
  </joint>
  <!-- ************************************************** -->
  <!-- **** SW_propeller_down                        **** -->
  <!-- ************************************************** -->
  <link name="SW_propeller_down">
    <visual>
      <origin xyz="0. 0. 0." rpy="0. 0. 0." />
      <geometry>
        <cylinder length="74.e-3" radius="23e-3" />
      </geometry>
      <material name="lightred" />
    </visual>
    <inertial>
      <origin xyz="0. 0. 0." rpy="0. 0. 0." />
      <mass value="0.160" />
      <inertia ixx="9.42e-05" ixy="0" ixz="0" iyy="9.42e-05" iyz="0" izz="4.23e-05" />
    </inertial>
  </link>
  <joint name="SW_propeller_up_to_SW_propeller_down" type="fixed">
    <parent link="SW_propeller_up" />
    <child link="SW_propeller_down" />
    <origin xyz="0. 0. -74e-3" rpy="0. 0. 0." />
  </joint>
  <!-- ************************************************** -->
  <!-- **** NW_prop_arm                              **** -->
  <!-- ************************************************** -->
  <link name="NW_prop_arm">
    <visual>
      <origin xyz="0. 0. 0." rpy="0. 0. 0." />
      <geometry>
        <box size="70.e-3 30e-3 40e-3" />
      </geometry>
      <material name="green" />
    </visual>
    <inertial>
      <origin xyz="0. 0. 0." rpy="0. 0. 0." />
      <mass value="0.112" />
      <inertia ixx="2.33e-05" ixy="0" ixz="0" iyy="6.07e-05" iyz="0" izz="5.41e-05" />
    </inertial>
  </link>
  <joint name="central_hub_to_NW_prop_arm" type="fixed">
    <parent link="central_hub" />
    <child link="NW_prop_arm" />
    <origin xyz="0 55e-3 -5e-3" rpy="0 0 1.5708" />
  </joint>
  <!-- ************************************************** -->
  <!-- **** NW_propeller_up                          **** -->
  <!-- ************************************************** -->
  <link name="NW_propeller_up">
    <visual>
      <origin xyz="0. 0. 0." rpy="0. 0. 0." />
      <geometry>
        <cylinder length="74.e-3" radius="46e-3" />
      </geometry>
      <material name="lightred" />
    </visual>
    <inertial>
      <origin xyz="0. 0. 0." rpy="0. 0. 0." />
      <mass value="0.320" />
      <inertia ixx="3.15e-04" ixy="0" ixz="0" iyy="3.15e-04" iyz="0" izz="3.39e-04" />
    </inertial>
  </link>
  <joint name="NW_prop_arm_to_NW_propeller_up" type="fixed">
    <parent link="NW_prop_arm" />
    <child link="NW_propeller_up" />
    <origin xyz="81e-3 0. 0." rpy="0. 0. 0." />
  </joint>
  <!-- ************************************************** -->
  <!-- **** NW_propeller_down                        **** -->
  <!-- ************************************************** -->
  <link name="NW_propeller_down">
    <visual>
      <origin xyz="0. 0. 0." rpy="0. 0. 0." />
      <geometry>
        <cylinder length="74.e-3" radius="23e-3" />
      </geometry>
      <material name="lightred" />
    </visual>
    <inertial>
      <origin xyz="0. 0. 0." rpy="0. 0. 0." />
      <mass value="0.160" />
      <inertia ixx="9.42e-05" ixy="0" ixz="0" iyy="9.42e-05" iyz="0" izz="4.23e-05" />
    </inertial>
  </link>
  <joint name="NW_propeller_up_to_NW_propeller_down" type="fixed">
    <parent link="NW_propeller_up" />
    <child link="NW_propeller_down" />
    <origin xyz="0. 0. -74e-3" rpy="0. 0. 0." />
  </joint>
  <!-- ************************************************** -->
  <!-- **** SE_prop_arm                              **** -->
  <!-- ************************************************** -->
  <link name="SE_prop_arm">
    <visual>
      <origin xyz="0. 0. 0." rpy="0. 0. 0." />
      <geometry>
        <box size="70.e-3 30e-3 40e-3" />
      </geometry>
      <material name="green" />
    </visual>
    <inertial>
      <origin xyz="0. 0. 0." rpy="0. 0. 0." />
      <mass value="0.112" />
      <inertia ixx="2.33e-05" ixy="0" ixz="0" iyy="6.07e-05" iyz="0" izz="5.41e-05" />
    </inertial>
  </link>
  <joint name="central_hub_to_SE_prop_arm" type="fixed">
    <parent link="central_hub" />
    <child link="SE_prop_arm" />
    <origin xyz="0 -55e-3 -5e-3" rpy="0 0 -1.5708" />
  </joint>
  <!-- ************************************************** -->
  <!-- **** SE_propeller_up                          **** -->
  <!-- ************************************************** -->
  <link name="SE_propeller_up">
    <visual>
      <origin xyz="0. 0. 0." rpy="0. 0. 0." />
      <geometry>
        <cylinder length="74.e-3" radius="46e-3" />
      </geometry>
      <material name="lightred" />
    </visual>
    <inertial>
      <origin xyz="0. 0. 0." rpy="0. 0. 0." />
      <mass value="0.320" />
      <inertia ixx="3.15e-04" ixy="0" ixz="0" iyy="3.15e-04" iyz="0" izz="3.39e-04" />
    </inertial>
  </link>
  <joint name="SE_prop_arm_to_SE_propeller_up" type="fixed">
    <parent link="SE_prop_arm" />
    <child link="SE_propeller_up" />
    <origin xyz="81e-3 0. 0." rpy="0. 0. 0." />
  </joint>
  <!-- ************************************************** -->
  <!-- **** SE_propeller_down                        **** -->
  <!-- ************************************************** -->
  <link name="SE_propeller_down">
    <visual>
      <origin xyz="0. 0. 0." rpy="0. 0. 0." />
      <geometry>
        <cylinder length="74.e-3" radius="23e-3" />
      </geometry>
      <material name="lightred" />
    </visual>
    <inertial>
      <origin xyz="0. 0. 0." rpy="0. 0. 0." />
      <mass value="0.160" />
      <inertia ixx="9.42e-05" ixy="0" ixz="0" iyy="9.42e-05" iyz="0" izz="4.23e-05" />
    </inertial>
  </link>
  <joint name="SE_propeller_up_to_SE_propeller_down" type="fixed">
    <parent link="SE_propeller_up" />
    <child link="SE_propeller_down" />
    <origin xyz="0. 0. -74e-3" rpy="0. 0. 0." />
  </joint>
</robot>
